<?xml version="1.0" encoding="utf-8"?>
<!-- Generator: Adobe Illustrator 19.1.0, SVG Export Plug-In . SVG Version: 6.00 Build 0)  -->
<svg version="1.1" id="Layer_2" xmlns="http://www.w3.org/2000/svg" xmlns:xlink="http://www.w3.org/1999/xlink" x="0px" y="0px"
	 viewBox="0 0 300 300" style="enable-background:new 0 0 300 300;" xml:space="preserve">
<style type="text/css">
	.st0{fill:#C21C2B;}
</style>
<g id="Layer_2">
	<g>
		<path class="st0" d="M260.3,118.3c-12.8,0-23.6,8.1-27.8,19.4l-24.4-1.2c0.2-1.7,0.3-3.4,0.3-5.1c0-19.6-11.4-36.5-27.9-44.4
			l12.4-22.8c3,1,6.2,1.5,9.5,1.5c16.6,0,30-13.4,30-30s-13.4-30-30-30s-30,13.4-30,30c0,10.6,5.5,20,13.9,25.3l-12.7,23.2
			C169,82.8,164.1,82,159,82c-19.7,0-36.7,11.6-44.6,28.3L70.8,70.6c3.7-5,5.8-11.2,5.8-17.9c0-16.8-13.6-30.3-30.3-30.3
			C29.6,22.3,16,35.9,16,52.7C16,69.4,29.6,83,46.3,83c7.4,0,14.2-2.7,19.5-7.1l45.8,41.8c-1.2,4.3-1.9,8.9-1.9,13.6
			c0,11.3,3.8,21.7,10.2,30l-29.3,32.1c-5.7-5.6-13.6-9.1-22.3-9.1c-17.5,0-31.7,14.2-31.7,31.7s14.2,31.7,31.7,31.7
			S100,233.5,100,216c0-6.1-1.8-11.9-4.8-16.7l29.6-32.4c8.9,8.5,20.9,13.8,34.2,13.8c6.7,0,13.1-1.3,18.9-3.8l15,26.3
			c-8,5.9-13.3,15.4-13.3,26.1c0,17.9,14.5,32.3,32.3,32.3s32.3-14.5,32.3-32.3c0-17.9-14.5-32.3-32.3-32.3c-4.5,0-8.8,0.9-12.7,2.6
			l-14.8-26c10.9-6.6,19-17.2,22.3-29.9l24.1,1.2c-0.1,1-0.2,2-0.2,3.1c0,16.4,13.3,29.7,29.7,29.7c16.4,0,29.7-13.3,29.7-29.7
			S276.7,118.3,260.3,118.3z"/>
	</g>
</g>
</svg>
